{
	"AlgoMap255BrLevel": {
		"sectionone": [0.006667,1.993],
		"sectiontwo": [0.05034,-194.6],
		"sectionthree": [0.01483260348,48.4263314],
		"sectionkeypoint": [4501,6848]
	},
	"LcmMapAlgoBrLevel": [
		[1,1],
		[2,76],
		[3,226],
		[4,376],
		[5,526],
		[6,676],
		[7,826],
		[8,976],
		[9,1125],
		[10,1275],
		[11,1425],
		[12,1575],
		[13,1725],
		[14,1875],
		[15,2025],
		[16,2175],
		[17,2325],
		[18,2475],
		[19,2625],
		[20,2775],
		[21,2925],
		[22,3075],
		[23,3225],
		[24,3375],
		[25,3525],
		[26,3675],
		[27,3825],
		[28,3975],
		[29,4125],
		[30,4275],
		[31,4425],
		[32,4511],
		[33,4531],
		[34,4551],
		[35,4570],
		[36,4590],
		[37,4610],
		[38,4630],
		[39,4650],
		[40,4670],
		[41,4690],
		[42,4710],
		[43,4729],
		[44,4749],
		[45,4769],
		[46,4789],
		[47,4809],
		[48,4829],
		[49,4849],
		[50,4868],
		[51,4888],
		[52,4908],
		[53,4928],
		[54,4948],
		[55,4968],
		[56,4988],
		[57,5008],
		[58,5027],
		[59,5047],
		[60,5067],
		[61,5087],
		[62,5107],
		[63,5127],
		[64,5147],
		[65,5166],
		[66,5186],
		[67,5206],
		[68,5226],
		[69,5246],
		[70,5266],
		[71,5286],
		[72,5305],
		[73,5325],
		[74,5345],
		[75,5365],
		[76,5385],
		[77,5405],
		[78,5425],
		[79,5445],
		[80,5464],
		[81,5484],
		[82,5504],
		[83,5524],
		[84,5544],
		[85,5564],
		[86,5584],
		[87,5603],
		[88,5623],
		[89,5643],
		[90,5663],
		[91,5683],
		[92,5703],
		[93,5723],
		[94,5743],
		[95,5762],
		[96,5782],
		[97,5802],
		[98,5822],
		[99,5842],
		[100,5862],
		[101,5882],
		[102,5901],
		[103,5921],
		[104,5941],
		[105,5961],
		[106,5981],
		[107,6001],
		[108,6021],
		[109,6040],
		[110,6060],
		[111,6080],
		[112,6100],
		[113,6120],
		[114,6140],
		[115,6160],
		[116,6180],
		[117,6199],
		[118,6219],
		[119,6239],
		[120,6259],
		[121,6279],
		[122,6299],
		[123,6319],
		[124,6338],
		[125,6358],
		[126,6378],
		[127,6398],
		[128,6418],
		[129,6438],
		[130,6458],
		[131,6478],
		[132,6497],
		[133,6517],
		[134,6537],
		[135,6557],
		[136,6577],
		[137,6597],
		[138,6617],
		[139,6636],
		[140,6656],
		[141,6676],
		[142,6696],
		[143,6716],
		[144,6736],
		[145,6756],
		[146,6775],
		[147,6795],
		[148,6815],
		[149,6835],
		[150,6880],
		[151,6949],
		[152,7016],
		[153,7084],
		[154,7151],
		[155,7219],
		[156,7286],
		[157,7353],
		[158,7421],
		[159,7488],
		[160,7556],
		[161,7623],
		[162,7691],
		[163,7758],
		[164,7825],
		[165,7893],
		[166,7960],
		[167,8028],
		[168,8095],
		[169,8162],
		[170,8230],
		[171,8297],
		[172,8365],
		[173,8432],
		[174,8500],
		[175,8567],
		[176,8634],
		[177,8702],
		[178,8769],
		[179,8837],
		[180,8904],
		[181,8971],
		[182,9039],
		[183,9106],
		[184,9174],
		[185,9241],
		[186,9309],
		[187,9376],
		[188,9443],
		[189,9511],
		[190,9578],
		[191,9646],
		[192,9713],
		[193,9781],
		[194,9848],
		[195,9915],
		[196,9983],
		[197,10050],
		[198,10118],
		[199,10185],
		[200,10252],
		[201,10320],
		[202,10387],
		[203,10455],
		[204,10522],
		[205,10590],
		[206,10657],
		[207,10724],
		[208,10792],
		[209,10859],
		[210,10927],
		[211,10994],
		[212,11061],
		[213,11129],
		[214,11196],
		[215,11264],
		[216,11331],
		[217,11399],
		[218,11466],
		[219,11533],
		[220,11601],
		[221,11668],
		[222,11736],
		[223,11803],
		[224,11871],
		[225,11938],
		[226,12005],
		[227,12073],
		[228,12140],
		[229,12208],
		[230,12275],
		[231,12342],
		[232,12410],
		[233,12477],
		[234,12545],
		[235,12612],
		[236,12680],
		[237,12747],
		[238,12814],
		[239,12882],
		[240,12949],
		[241,13017],
		[242,13084],
		[243,13151],
		[244,13219],
		[245,13286],
		[246,13354],
		[247,13421],
		[248,13489],
		[249,13556],
		[250,13623],
		[251,13691],
		[252,13758],
		[253,13826],
		[254,13893],
		[255,13927]
	]
}
