{
	"ramperbrightness": {
		"sectiondown": [
			[-16.76744186,36515.95349],
			[-24.42222222,51856.13333],
			[-30.0304878,62842.72561],
			[-30.73469388,64106.77551],
			[-29.69318182,62339.32955],
			[-28.39130435,60244.6087],
			[-27.62711864,59085.33898],
			[-28.45804196,60149.75175],
			[-29.56862745,61254.78431],
			[-30.43269231,61982.32692],
			[-32.38181818,63420.78182],
			[-32.08510638,63218.12766],
			[-29.91818182,61839.96364],
			[-39.42657343,66841.37762],
			[-49.10714286,70549.03571],
			[-43.19402985,68449.8806]
		],
		"section_downpoint": [2004,1959,1795,1697,1609,1517,1281,995,842,738,683,636,526,383,355,221],
		"section_down_min_step": [4,3,2,2,3,3,3,4,4,4,4,4,4,4,4,4],
		"sectiondowngapminone": 20,
		"sectiondowngapmintwo": 80,
		"sectiondownkeybr": 1517,
		"downlcmFlickValue": 2,
		"uptotaltime": 2800,
		"uplimmitcount": 25,
		"section_uppoint": [1501,1884],
		"quickupstep": [133,54,19],
		"quickupgap": [20,0,0],
		"quickdownstep": [19,11,6,16],
		"quickdowngap": [40,40,30,20],
		"quick_sectionpoint": [1792,1588,1330,221],
		"pemtotaltime": 10000
	}
}
